Asynchronous FIFO/Verification/dump.vcd
$date
Tue Jul 22 15:11:25 2025
$end
$version
Riviera-PRO Version 2023.04.112.8911
$end
$timescale
1 ps
$end

$scope module fifo_tb_top $end
$var reg 1 ! wr_clk $end
$var reg 1 " rd_clk $end

$scope module fifo_if_inst $end
$var reg 1 # wr_rst_n $end
$var reg 1 $ wr_en $end
$var reg 41 % wr_data [40:0] $end
$var reg 1 & rd_rst_n $end
$var reg 1 ' rd_en $end
$var reg 41 ( rd_data [40:0] $end
$var reg 1 ) full $end
$var reg 1 * empty $end
$var reg 1 + full $end
$var reg 1 , wr_en $end
$var reg 41 - wr_data [40:0] $end
$var reg 41 . rd_data [40:0] $end
$var reg 1 / empty $end
$var reg 1 0 rd_en $end
$upscope $end


$scope module dut $end
$var wire 1 1 wr_clk $end
$var wire 1 2 wr_rst_n $end
$var wire 1 3 wr_en $end
$var wire 41 4 wr_data [40:0] $end
$var wire 1 5 rd_clk $end
$var wire 1 6 rd_rst_n $end
$var wire 1 7 rd_en $end
$var wire 1 8 full $end
$var wire 1 9 empty $end
$var wire 41 : rd_data [40:0] $end
$var parameter 32 ; DATA_WIDTH [31:0] $end
$var parameter 32 < ADDR_WIDTH [31:0] $end

$scope module u_async_fifo_ctrl $end
$var wire 1 1 wr_clk $end
$var wire 1 = wr_rst_n $end
$var wire 1 > wr_en $end
$var wire 41 ? wr_data [40:0] $end
$var wire 1 5 rd_clk $end
$var wire 1 @ rd_rst_n $end
$var wire 1 A rd_en $end
$var wire 1 8 full $end
$var wire 1 9 empty $end
$var wire 41 : rd_data [40:0] $end
$var wire 5 B wr_ptr_gray [4:0] $end
$var wire 5 C rd_ptr_gray_sync [4:0] $end
$var wire 5 D rd_ptr_bin_sync [4:0] $end
$var wire 5 E rd_ptr_gray [4:0] $end
$var wire 5 F wr_ptr_gray_sync [4:0] $end
$var wire 5 G wr_ptr_bin_sync [4:0] $end
$var reg 5 H wr_ptr_bin [4:0] $end
$var reg 5 I rd_ptr_bin [4:0] $end
$var parameter 32 J DATA_WIDTH [31:0] $end
$var parameter 32 K ADDR_WIDTH [31:0] $end
$var parameter 32 L PTR_WIDTH [31:0] $end

$scope module wr_bin2gray $end
$var wire 5 M bin [4:0] $end
$var wire 5 B gray [4:0] $end
$var parameter 32 N WIDTH [31:0] $end
$upscope $end


$scope module rd_bin2gray $end
$var wire 5 O bin [4:0] $end
$var wire 5 E gray [4:0] $end
$var parameter 32 P WIDTH [31:0] $end
$upscope $end


$scope module rd_ptr_sync_inst $end
$var wire 1 1 clk $end
$var wire 1 Q rst_n $end
$var wire 5 E async_in [4:0] $end
$var reg 5 R sync_out [4:0] $end
$var reg 5 S sync_ff1 [4:0] $end
$var parameter 32 T WIDTH [31:0] $end
$upscope $end


$scope module wr_ptr_sync_inst $end
$var wire 1 5 clk $end
$var wire 1 U rst_n $end
$var wire 5 B async_in [4:0] $end
$var reg 5 V sync_out [4:0] $end
$var reg 5 W sync_ff1 [4:0] $end
$var parameter 32 X WIDTH [31:0] $end
$upscope $end


$scope module rd_gray2bin $end
$var wire 5 C gray [4:0] $end
$var wire 5 D bin [4:0] $end
$var integer 32 Y i $end
$var reg 5 Z bin_temp [4:0] $end
$var parameter 32 [ WIDTH [31:0] $end
$upscope $end


$scope module wr_gray2bin $end
$var wire 5 F gray [4:0] $end
$var wire 5 G bin [4:0] $end
$var integer 32 \ i $end
$var reg 5 ] bin_temp [4:0] $end
$var parameter 32 ^ WIDTH [31:0] $end
$upscope $end


$scope module fifo_mem_inst $end
$var wire 1 1 wr_clk $end
$var wire 1 _ wr_en $end
$var wire 4 ` wr_addr [3:0] $end
$var wire 41 a wr_data [40:0] $end
$var wire 1 5 rd_clk $end
$var wire 1 b rd_en $end
$var wire 4 c rd_addr [3:0] $end
$var reg 41 d rd_data [40:0] $end
$var parameter 32 e DATA_WIDTH [31:0] $end
$var parameter 32 f ADDR_WIDTH [31:0] $end
$var parameter 32 g DEPTH [31:0] $end
$upscope $end

$upscope $end

$upscope $end


$scope task @FORK#14_0@ $end
$upscope $end


$scope task @FORK#15_1@ $end
$upscope $end

$upscope $end

$enddefinitions $end
$dumpvars
0!
0"
0#
x$
bx %
0&
x'
bx (
0)
1*
x+
x,
bx -
bx .
x/
x0
01
02
x3
bx 4
05
06
x7
08
19
bx :
b101001 ;
b100 <
0=
x>
bx ?
0@
xA
b0 B
b0 C
b0 D
b0 E
b0 F
b0 G
b0 H
b0 I
b101001 J
b100 K
b101 L
b0 M
b101 N
b0 O
b101 P
0Q
b0 R
b0 S
b101 T
0U
b0 V
b0 W
b101 X
b11111111111111111111111111111111 Y
b0 Z
b101 [
b11111111111111111111111111111111 \
b0 ]
b101 ^
x_
b0 `
bx a
0b
b0 c
bx d
b101001 e
b100 f
b10000 g
$end
#20000
1!
11
1$
b110 %
b110 4
b110 ?
b110 a
13
1>
1_
0+
#40000
1"
0!
01
15
1'
17
1A
1/
#50000
1#
1&
16
1@
1U
12
1=
1Q
#60000
1!
11
b1 H
b1 `
b1 M
b1 B
b1001 %
b1001 4
b1001 ?
b1001 a
#80000
0"
0!
01
05
#100000
1!
11
b10 H
b10 `
b10 M
b11 B
#120000
1"
0!
01
15
b11 W
#140000
1!
11
b11 H
b11 `
b11 M
b10 B
b1 %
b1 4
b1 ?
b1 a
#160000
0"
0!
01
05
#180000
1!
11
b100 H
b100 `
b100 M
b110 B
#200000
1"
0!
01
15
b110 W
b11 V
b11 F
09
0*
1b
b11111111111111111111111111111111 \
b10 ]
b10 G
#220000
1!
11
b101 H
b101 `
b101 M
b111 B
b11 %
b11 4
b11 ?
b11 a
#240000
0"
0!
01
05
#260000
1!
11
b110 H
b110 `
b110 M
b101 B
#280000
1"
0!
01
15
b1 I
b110 d
b101 W
b110 V
b110 F
b110 :
b110 (
b1 c
b1 O
b1 E
b11111111111111111111111111111111 \
b100 ]
b100 G
0/
#300000
1!
11
b111 H
b1 S
b111 `
b111 M
b100 B
b1000 %
b1000 4
b1000 ?
b1000 a
#320000
0"
0!
01
05
#340000
1!
11
b1000 H
b1 R
b1 C
b1000 `
b1000 M
b1100 B
b11111111111111111111111111111111 Y
b1 Z
b1 D
#360000
1"
0!
01
15
b1001 d
b10 I
b1100 W
b101 V
b101 F
b10 c
b10 O
b1001 :
b1001 (
b11 E
b11111111111111111111111111111111 \
b110 ]
b110 G
b110 .
#380000
1!
11
b1001 H
b11 S
b1001 `
b1001 M
b1101 B
b110 %
b110 4
b110 ?
b110 a
#400000
0"
0!
01
05
#420000
1!
11
b1010 H
b11 R
b11 C
b1010 `
b1010 M
b1111 B
b11111111111111111111111111111111 Y
b10 Z
b10 D
#440000
1"
0!
01
15
b11 I
b1111 W
b1100 V
b1100 F
b11 c
b11 O
b10 E
b11111111111111111111111111111111 \
b1000 ]
b1000 G
b1001 .
#460000
1!
11
b1011 H
b10 S
b1011 `
b1011 M
b1110 B
b100 %
b100 4
b100 ?
b100 a
#480000
0"
0!
01
05
#500000
1!
11
b1100 H
b10 R
b10 C
b1100 `
b1100 M
b1010 B
b11111111111111111111111111111111 Y
b11 Z
b11 D
#520000
1"
0!
01
15
b1 d
b100 I
b1010 W
b1111 V
b1111 F
b100 c
b100 O
b1 :
b1 (
b110 E
b11111111111111111111111111111111 \
b1010 ]
b1010 G
#540000
1!
11
b1101 H
b110 S
b1101 `
b1101 M
b1011 B
b111 %
b111 4
b111 ?
b111 a
#560000
0"
0!
01
05
#580000
1!
11
b1110 H
b110 R
b110 C
b1110 `
b1110 M
b1001 B
b11111111111111111111111111111111 Y
b100 Z
b100 D
#600000
1"
0!
01
15
b101 I
b1001 W
b1010 V
b1010 F
b101 c
b101 O
b111 E
b11111111111111111111111111111111 \
b1100 ]
b1100 G
b1 .
#620000
1!
11
b1111 H
b111 S
b1111 `
b1111 M
b1000 B
#640000
0"
0!
01
05
#660000
1!
11
b10000 H
b111 R
b111 C
b0 `
b10000 M
b11000 B
b11111111111111111111111111111111 Y
b101 Z
b101 D
#680000
1"
0!
01
15
b11 d
b110 I
b11000 W
b1001 V
b1001 F
b110 c
b110 O
b11 :
b11 (
b101 E
b11111111111111111111111111111111 \
b1110 ]
b1110 G
#700000
1!
11
b10001 H
b101 S
b1 `
b10001 M
b11001 B
b100 %
b100 4
b100 ?
b100 a
#720000
0"
0!
01
05
#740000
1!
11
b10010 H
b101 R
b101 C
b10 `
b10010 M
b11011 B
b11111111111111111111111111111111 Y
b110 Z
b110 D
#760000
1"
0!
01
15
b111 I
b11011 W
b11000 V
b11000 F
b111 c
b111 O
b100 E
b10000 ]
b11111111111111111111111111111111 \
b10000 G
b11 .
#780000
1!
11
b10011 H
b100 S
b11 `
b10011 M
b11010 B
b1 %
b1 4
b1 ?
b1 a
#800000
0"
0!
01
05
#820000
1!
11
b10100 H
b100 R
b100 C
b100 `
b10100 M
b11110 B
b11111111111111111111111111111111 Y
b111 Z
b111 D
#840000
1"
0!
01
15
b1000 d
b1000 I
b11110 W
b11011 V
b11011 F
b1000 c
b1000 O
b1000 :
b1000 (
b1100 E
b11111111111111111111111111111111 \
b10010 ]
b10010 G
#860000
1!
11
b10101 H
b1100 S
b101 `
b10101 M
b11111 B
b1000 %
b1000 4
b1000 ?
b1000 a
#880000
0"
0!
01
05
#900000
1!
11
b10110 H
b1100 R
b1100 C
b110 `
b10110 M
b11101 B
b11111111111111111111111111111111 Y
b1000 Z
b1000 D
#920000
1"
0!
01
15
b1001 I
b11101 W
b11110 V
b11110 F
b1001 c
b1001 O
b1101 E
b11111111111111111111111111111111 \
b10100 ]
b10100 G
b1000 .
#940000
1!
11
b10111 H
b1101 S
b111 `
b10111 M
b11100 B
b0 %
b0 4
b0 ?
b0 a
#960000
0"
0!
01
05
#980000
1!
11
b11000 H
b1101 R
b1101 C
b1000 `
b11000 M
b10100 B
b11111111111111111111111111111111 Y
b1001 Z
b1001 D
#1000000
1"
0!
01
15
b110 d
b1010 I
b10100 W
b11101 V
b11101 F
b1010 c
b1010 O
b110 :
b110 (
b1111 E
b11111111111111111111111111111111 \
b10110 ]
b10110 G
#1020000
1!
11
b11001 H
b1111 S
b1001 `
b11001 M
b10101 B
18
1)
0_
b10 %
b10 4
b10 ?
b10 a
#1040000
0"
0!
01
05
#1060000
1!
11
b1111 R
b1111 C
08
0)
1_
b11111111111111111111111111111111 Y
b1010 Z
b1010 D
1+
#1080000
1"
0!
01
15
b1011 I
b10101 W
b10100 V
b10100 F
b1011 c
b1011 O
b1110 E
b11111111111111111111111111111111 \
b11000 ]
b11000 G
b110 .
#1100000
1!
11
b11010 H
b1110 S
b1010 `
b11010 M
b10111 B
18
1)
0_
b100 %
b100 4
b100 ?
b100 a
0+
#1120000
0"
0!
01
05
#1140000
1!
11
b1110 R
b1110 C
08
0)
1_
b11111111111111111111111111111111 Y
b1011 Z
b1011 D
1+
#1160000
1"
0!
01
15
b100 d
b1100 I
b10111 W
b10101 V
b10101 F
b1100 c
b1100 O
b100 :
b100 (
b1010 E
b11111111111111111111111111111111 \
b11001 ]
b11001 G
#1180000
1!
11
b11011 H
b1010 S
b1011 `
b11011 M
b10110 B
18
1)
0_
b110 %
b110 4
b110 ?
b110 a
0+
#1200000
0"
0!
01
05
#1220000
1!
11
b1010 R
b1010 C
08
0)
1_
b11111111111111111111111111111111 Y
b1100 Z
b1100 D
1+
#1240000
1"
0!
01
15
b1101 I
b10110 W
b10111 V
b10111 F
b1101 c
b1101 O
b1011 E
b11111111111111111111111111111111 \
b11010 ]
b11010 G
b100 .
#1260000
1!
11
b11100 H
b1011 S
b1100 `
b11100 M
b10010 B
18
1)
0_
b10 %
b10 4
b10 ?
b10 a
0+
#1280000
0"
0!
01
05
#1300000
1!
11
b1011 R
b1011 C
08
0)
1_
b11111111111111111111111111111111 Y
b1101 Z
b1101 D
1+
#1320000
1"
0!
01
15
b111 d
b1110 I
b10010 W
b10110 V
b10110 F
b1110 c
b1110 O
b111 :
b111 (
b1001 E
b11111111111111111111111111111111 \
b11011 ]
b11011 G
#1340000
1!
11
b11101 H
b1001 S
b1101 `
b11101 M
b10011 B
18
1)
0_
b0 %
b0 4
b0 ?
b0 a
0+
#1360000
0"
0!
01
05
#1380000
1!
11
b1001 R
b1001 C
08
0)
1_
b11111111111111111111111111111111 Y
b1110 Z
b1110 D
1+
#1400000
1"
0!
01
15
b1111 I
b10011 W
b10010 V
b10010 F
b1111 c
b1111 O
b1000 E
b11111111111111111111111111111111 \
b11100 ]
b11100 G
b111 .
#1420000
1!
11
b11110 H
b1000 S
b1110 `
b11110 M
b10001 B
18
1)
0_
b10 %
b10 4
b10 ?
b10 a
0+
#1440000
0"
0!
01
05
#1460000
1!
11
b1000 R
b1000 C
08
0)
1_
b11111111111111111111111111111111 Y
b1111 Z
b1111 D
1+
#1480000
1"
0!
01
15
b10000 I
b10001 W
b10011 V
b10011 F
b0 c
b10000 O
b11000 E
b11111111111111111111111111111111 \
b11101 ]
b11101 G
#1500000
1!
11
b11111 H
b11000 S
b1111 `
b11111 M
b10000 B
18
1)
0_
b0 %
b0 4
b0 ?
b0 a
0+
#1520000
0"
0!
01
05
#1540000
1!
11
b11000 R
b11000 C
08
0)
1_
b10000 Z
b11111111111111111111111111111111 Y
b10000 D
1+
#1560000
1"
0!
01
15
b10001 I
b10000 W
b10001 V
b10001 F
b1 c
b10001 O
b11001 E
b11111111111111111111111111111111 \
b11110 ]
b11110 G
#1580000
1!
11
b0 H
b11001 S
b0 `
b0 M
b0 B
18
1)
0_
b100 %
b100 4
b100 ?
b100 a
0+
#1600000
0"
0!
01
05
#1620000
1!
11
b11001 R
b11001 C
08
0)
1_
b11111111111111111111111111111111 Y
b10001 Z
b10001 D
1+
#1640000
1"
0!
01
15
b100 d
b10010 I
b0 W
b10000 V
b10000 F
b10 c
b10010 O
b100 :
b100 (
b11011 E
b11111111111111111111111111111111 \
b11111 ]
b11111 G
#1660000
1!
11
b1 H
b11011 S
b1 `
b1 M
b1 B
18
1)
0_
b1010 %
b1010 4
b1010 ?
b1010 a
0+
#1680000
0"
0!
01
05
#1700000
1!
11
b11011 R
b11011 C
08
0)
1_
b11111111111111111111111111111111 Y
b10010 Z
b10010 D
1+
#1720000
1"
0!
01
15
b10011 I
b1 W
b0 V
b0 F
b11 c
b10011 O
b11010 E
b0 ]
b11111111111111111111111111111111 \
b0 G
b100 .
#1740000
1!
11
b10 H
b11010 S
b10 `
b10 M
b11 B
18
1)
0_
b100 %
b100 4
b100 ?
b100 a
0+
#1760000
0"
0!
01
05
#1780000
1!
11
b11010 R
b11010 C
08
0)
1_
b11111111111111111111111111111111 Y
b10011 Z
b10011 D
1+
#1800000
1"
0!
01
15
b1 d
b10100 I
b11 W
b1 V
b1 F
b100 c
b10100 O
b1 :
b1 (
b11110 E
b11111111111111111111111111111111 \
b1 ]
b1 G
#1820000
1!
11
b11 H
b11110 S
b11 `
b11 M
b10 B
18
1)
0_
b1010 %
b1010 4
b1010 ?
b1010 a
0+
#1840000
0"
0!
01
05
#1860000
1!
11
b11110 R
b11110 C
08
0)
1_
b11111111111111111111111111111111 Y
b10100 Z
b10100 D
1+
#1880000
1"
0!
01
15
b10101 I
b10 W
b11 V
b11 F
b101 c
b10101 O
b11111 E
b11111111111111111111111111111111 \
b10 ]
b10 G
b1 .
#1900000
1!
11
b100 H
b11111 S
b100 `
b100 M
b110 B
18
1)
0_
b1001 %
b1001 4
b1001 ?
b1001 a
0+
#1920000
0"
0!
01
05
#1940000
1!
11
b11111 R
b11111 C
08
0)
1_
b11111111111111111111111111111111 Y
b10101 Z
b10101 D
1+
#1960000
1"
0!
01
15
b1000 d
b10110 I
b110 W
b10 V
b10 F
b110 c
b10110 O
b1000 :
b1000 (
b11101 E
b11111111111111111111111111111111 \
b11 ]
b11 G
#1980000
1!
11
b101 H
b11101 S
b101 `
b101 M
b111 B
18
1)
0_
b1000 %
b1000 4
b1000 ?
b1000 a
0+
#2000000
0"
0!
01
05
#2020000
1!
11
b11101 R
b11101 C
08
0)
1_
b11111111111111111111111111111111 Y
b10110 Z
b10110 D
1+
#2040000
1"
0!
01
15
b10111 I
b111 W
b110 V
b110 F
b111 c
b10111 O
b11100 E
b11111111111111111111111111111111 \
b100 ]
b100 G
b1000 .
#2060000
1!
11
b110 H
b11100 S
b110 `
b110 M
b101 B
18
1)
0_
b101 %
b101 4
b101 ?
b101 a
0+
#2080000
0"
0!
01
05
#2100000
1!
11
b11100 R
b11100 C
08
0)
1_
b11111111111111111111111111111111 Y
b10111 Z
b10111 D
1+
#2120000
1"
0!
01
15
b0 d
b11000 I
b101 W
b111 V
b111 F
b1000 c
b11000 O
b0 :
b0 (
b10100 E
b11111111111111111111111111111111 \
b101 ]
b101 G
#2140000
1!
11
b111 H
b10100 S
b111 `
b111 M
b100 B
18
1)
0_
b11 %
b11 4
b11 ?
b11 a
0+
#2160000
0"
0!
01
05
#2180000
1!
11
b10100 R
b10100 C
08
0)
1_
b11111111111111111111111111111111 Y
b11000 Z
b11000 D
1+
#2200000
1"
0!
01
15
b11001 I
b100 W
b101 V
b101 F
b1001 c
b11001 O
b10101 E
b11111111111111111111111111111111 \
b110 ]
b110 G
b0 .
#2220000
1!
11
b1000 H
b10101 S
b1000 `
b1000 M
b1100 B
18
1)
0_
b100 %
b100 4
b100 ?
b100 a
0+
#2240000
0"
0!
01
05
#2260000
1!
11
b10101 R
b10101 C
08
0)
1_
b11111111111111111111111111111111 Y
b11001 Z
b11001 D
1+
#2280000
1"
0!
01
15
b10 d
b11010 I
b1100 W
b100 V
b100 F
b1010 c
b11010 O
b10 :
b10 (
b10111 E
b11111111111111111111111111111111 \
b111 ]
b111 G
#2300000
1!
11
b1001 H
b10111 S
b1001 `
b1001 M
b1101 B
18
1)
0_
b10 %
b10 4
b10 ?
b10 a
0+
#2320000
0"
0!
01
05
#2340000
1!
11
b10111 R
b10111 C
08
0)
1_
b11111111111111111111111111111111 Y
b11010 Z
b11010 D
1+
#2360000
1"
0!
01
15
b100 d
b11011 I
b1101 W
b1100 V
b1100 F
b1011 c
b11011 O
b100 :
b100 (
b10110 E
b11111111111111111111111111111111 \
b1000 ]
b1000 G
b10 .
#2380000
1!
11
b1010 H
b10110 S
b1010 `
b1010 M
b1111 B
18
1)
0_
b0 %
b0 4
b0 ?
b0 a
0+
#2400000
0"
0!
01
05
#2420000
1!
11
b10110 R
b10110 C
08
0)
1_
b11111111111111111111111111111111 Y
b11011 Z
b11011 D
1+
#2440000
1"
0!
01
15
b110 d
b11100 I
b1111 W
b1101 V
b1101 F
b1100 c
b11100 O
b110 :
b110 (
b10010 E
b11111111111111111111111111111111 \
b1001 ]
b1001 G
b100 .
#2460000
1!
11
b1011 H
b10010 S
b1011 `
b1011 M
b1110 B
18
1)
0_
b111 %
b111 4
b111 ?
b111 a
0+
#2480000
0"
0!
01
05
#2500000
1!
11
b10010 R
b10010 C
08
0)
1_
b11111111111111111111111111111111 Y
b11100 Z
b11100 D
1+
#2520000
1"
0!
01
15
b10 d
b11101 I
b1110 W
b1111 V
b1111 F
b1101 c
b11101 O
b10 :
b10 (
b10011 E
b11111111111111111111111111111111 \
b1010 ]
b1010 G
b110 .
#2540000
1!
11
b1100 H
b10011 S
b1100 `
b1100 M
b1010 B
18
1)
0_
0+
#2560000
0"
0!
01
05
#2580000
1!
11
b10011 R
b10011 C
08
0)
1_
b11111111111111111111111111111111 Y
b11101 Z
b11101 D
1+
#2600000
1"
0!
01
15
b0 d
b11110 I
b1010 W
b1110 V
b1110 F
b1110 c
b11110 O
b0 :
b0 (
b10001 E
b11111111111111111111111111111111 \
b1011 ]
b1011 G
b10 .
#2620000
1!
11
b1101 H
b10001 S
b1101 `
b1101 M
b1011 B
18
1)
0_
b1001 %
b1001 4
b1001 ?
b1001 a
0+
#2640000
0"
0!
01
05
#2660000
1!
11
b10001 R
b10001 C
08
0)
1_
b11111111111111111111111111111111 Y
b11110 Z
b11110 D
1+
#2680000
1"
0!
01
15
b10 d
b11111 I
b1011 W
b1010 V
b1010 F
b1111 c
b11111 O
b10 :
b10 (
b10000 E
b11111111111111111111111111111111 \
b1100 ]
b1100 G
b0 .
#2700000
1!
11
b1110 H
b10000 S
b1110 `
b1110 M
b1001 B
18
1)
0_
b110 %
b110 4
b110 ?
b110 a
0+
#2720000
0"
0!
01
05
#2740000
1!
11
b10000 R
b10000 C
08
0)
1_
b11111111111111111111111111111111 Y
b11111 Z
b11111 D
1+
#2760000
1"
0!
01
15
b0 d
b0 I
b1001 W
b1011 V
b1011 F
b0 c
b0 O
b0 :
b0 (
b0 E
b11111111111111111111111111111111 \
b1101 ]
b1101 G
b10 .
#2780000
1!
11
b1111 H
b0 S
b1111 `
b1111 M
b1000 B
18
1)
0_
b0 %
b0 4
b0 ?
b0 a
0+
#2800000
0"
0!
01
05
#2820000
1!
11
b0 R
b0 C
08
0)
1_
b0 Z
b11111111111111111111111111111111 Y
b0 D
1+
#2840000
1"
0!
01
15
b100 d
b1 I
b1000 W
b1001 V
b1001 F
b1 c
b1 O
b100 :
b100 (
b1 E
b11111111111111111111111111111111 \
b1110 ]
b1110 G
b0 .
#2860000
1!
11
b10000 H
b1 S
b0 `
b10000 M
b11000 B
18
1)
0_
b11 %
b11 4
b11 ?
b11 a
0+
#2880000
0"
0!
01
05
#2900000
1!
11
b1 R
b1 C
08
0)
1_
b11111111111111111111111111111111 Y
b1 Z
b1 D
1+
#2920000
1"
0!
01
15
b1010 d
b10 I
b11000 W
b1000 V
b1000 F
b10 c
b10 O
b1010 :
b1010 (
b11 E
b11111111111111111111111111111111 \
b1111 ]
b1111 G
b100 .
#2940000
1!
11
b10001 H
b11 S
b1 `
b10001 M
b11001 B
18
1)
0_
b1 %
b1 4
b1 ?
b1 a
0+
#2960000
0"
0!
01
05
#2980000
1!
11
b11 R
b11 C
08
0)
1_
b11111111111111111111111111111111 Y
b10 Z
b10 D
1+
#3000000
1"
0!
01
15
b100 d
b11 I
b11001 W
b11000 V
b11000 F
b11 c
b11 O
b100 :
b100 (
b10 E
b10000 ]
b11111111111111111111111111111111 \
b10000 G
b1010 .
#3020000
1!
11
b10010 H
b10 S
b10 `
b10010 M
b11011 B
18
1)
0_
b11 %
b11 4
b11 ?
b11 a
0+
#3040000
0"
0!
01
05
#3060000
1!
11
b10 R
b10 C
08
0)
1_
b11111111111111111111111111111111 Y
b11 Z
b11 D
1+
#3080000
1"
0!
01
15
b1010 d
b100 I
b11011 W
b11001 V
b11001 F
b100 c
b100 O
b1010 :
b1010 (
b110 E
b11111111111111111111111111111111 \
b10001 ]
b10001 G
b100 .
#3100000
1!
11
b10011 H
b110 S
b11 `
b10011 M
b11010 B
18
1)
0_
b1010 %
b1010 4
b1010 ?
b1010 a
0+
#3120000
0"
0!
01
05
#3140000
1!
11
b110 R
b110 C
08
0)
1_
b11111111111111111111111111111111 Y
b100 Z
b100 D
1+
#3160000
1"
0!
01
15
b1001 d
b101 I
b11010 W
b11011 V
b11011 F
b101 c
b101 O
b1001 :
b1001 (
b111 E
b11111111111111111111111111111111 \
b10010 ]
b10010 G
b1010 .
#3180000
1!
11
b10100 H
b111 S
b100 `
b10100 M
b11110 B
18
1)
0_
b110 %
b110 4
b110 ?
b110 a
0+
#3200000
0"
0!
01
05
#3220000
1!
11
b111 R
b111 C
08
0)
1_
b11111111111111111111111111111111 Y
b101 Z
b101 D
1+
#3240000
1"
0!
01
15
b1000 d
b110 I
b11110 W
b11010 V
b11010 F
b110 c
b110 O
b1000 :
b1000 (
b101 E
b11111111111111111111111111111111 \
b10011 ]
b10011 G
b1001 .
#3260000
1!
11
b10101 H
b101 S
b101 `
b10101 M
b11111 B
18
1)
0_
b100 %
b100 4
b100 ?
b100 a
0+
#3280000
0"
0!
01
05
#3300000
1!
11
b101 R
b101 C
08
0)
1_
b11111111111111111111111111111111 Y
b110 Z
b110 D
1+
#3320000
1"
0!
01
15
b101 d
b111 I
b11111 W
b11110 V
b11110 F
b111 c
b111 O
b101 :
b101 (
b100 E
b11111111111111111111111111111111 \
b10100 ]
b10100 G
b1000 .
#3340000
1!
11
b10110 H
b100 S
b110 `
b10110 M
b11101 B
18
1)
0_
b1 %
b1 4
b1 ?
b1 a
0+
#3360000
0"
0!
01
05
#3380000
1!
11
b100 R
b100 C
08
0)
1_
b11111111111111111111111111111111 Y
b111 Z
b111 D
1+
#3400000
1"
0!
01
15
b11 d
b1000 I
b11101 W
b11111 V
b11111 F
b1000 c
b1000 O
b11 :
b11 (
b1100 E
b11111111111111111111111111111111 \
b10101 ]
b10101 G
b101 .
#3420000
1!
11
b10111 H
b1100 S
b111 `
b10111 M
b11100 B
18
1)
0_
b101 %
b101 4
b101 ?
b101 a
0+
#3440000
0"
0!
01
05
#3460000
1!
11
b1100 R
b1100 C
08
0)
1_
b11111111111111111111111111111111 Y
b1000 Z
b1000 D
1+
#3480000
1"
0!
01
15
b100 d
b1001 I
b11100 W
b11101 V
b11101 F
b1001 c
b1001 O
b100 :
b100 (
b1101 E
b11111111111111111111111111111111 \
b10110 ]
b10110 G
b11 .
#3500000
1!
11
b11000 H
b1101 S
b1000 `
b11000 M
b10100 B
18
1)
0_
b100 %
b100 4
b100 ?
b100 a
0+
#3520000
0"
0!
01
05
#3540000
1!
11
b1101 R
b1101 C
08
0)
1_
b11111111111111111111111111111111 Y
b1001 Z
b1001 D
1+
#3560000
1"
0!
01
15
b10 d
b1010 I
b10100 W
b11100 V
b11100 F
b1010 c
b1010 O
b10 :
b10 (
b1111 E
b11111111111111111111111111111111 \
b10111 ]
b10111 G
b100 .
#3580000
1!
11
b11001 H
b1111 S
b1001 `
b11001 M
b10101 B
18
1)
0_
b111 %
b111 4
b111 ?
b111 a
0+
#3600000
0"
0!
01
05
#3620000
1!
11
b1111 R
b1111 C
08
0)
1_
b11111111111111111111111111111111 Y
b1010 Z
b1010 D
1+
#3640000
1"
0!
01
15
b0 d
b1011 I
b10101 W
b10100 V
b10100 F
b1011 c
b1011 O
b0 :
b0 (
b1110 E
b11111111111111111111111111111111 \
b11000 ]
b11000 G
b10 .
#3660000
1!
11
b11010 H
b1110 S
b1010 `
b11010 M
b10111 B
18
1)
0_
b1001 %
b1001 4
b1001 ?
b1001 a
0+
#3680000
0"
0!
01
05
#3700000
1!
11
b1110 R
b1110 C
08
0)
1_
b11111111111111111111111111111111 Y
b1011 Z
b1011 D
1+
#3720000
1"
0!
01
15
b111 d
b1100 I
b10111 W
b10101 V
b10101 F
b1100 c
b1100 O
b111 :
b111 (
b1010 E
b11111111111111111111111111111111 \
b11001 ]
b11001 G
b0 .
#3740000
1!
11
b11011 H
b1010 S
b1011 `
b11011 M
b10110 B
18
1)
0_
b10 %
b10 4
b10 ?
b10 a
0+
#3760000
0"
0!
01
05
#3780000
1!
11
b1010 R
b1010 C
08
0)
1_
b11111111111111111111111111111111 Y
b1100 Z
b1100 D
1+
#3800000
1"
0!
01
15
b1101 I
b10110 W
b10111 V
b10111 F
b1101 c
b1101 O
b1011 E
b11111111111111111111111111111111 \
b11010 ]
b11010 G
b111 .
#3820000
1!
11
b11100 H
b1011 S
b1100 `
b11100 M
b10010 B
18
1)
0_
0+
#3840000
0"
0!
01
05
#3860000
1!
11
b1011 R
b1011 C
08
0)
1_
b11111111111111111111111111111111 Y
b1101 Z
b1101 D
1+
#3880000
1"
0!
01
15
b1001 d
b1110 I
b10010 W
b10110 V
b10110 F
b1110 c
b1110 O
b1001 :
b1001 (
b1001 E
b11111111111111111111111111111111 \
b11011 ]
b11011 G
#3900000
1!
11
b11101 H
b1001 S
b1101 `
b11101 M
b10011 B
18
1)
0_
b0 %
b0 4
b0 ?
b0 a
0+
#3920000
0"
0!
01
05
#3940000
1!
11
b1001 R
b1001 C
08
0)
1_
b11111111111111111111111111111111 Y
b1110 Z
b1110 D
1+
#3960000
1"
0!
01
15
b110 d
b1111 I
b10011 W
b10010 V
b10010 F
b1111 c
b1111 O
b110 :
b110 (
b1000 E
b11111111111111111111111111111111 \
b11100 ]
b11100 G
b1001 .
#3980000
1!
11
b11110 H
b1000 S
b1110 `
b11110 M
b10001 B
18
1)
0_
0+
#4000000
0"
0!
01
05
#4020000
1!
11
b1000 R
b1000 C
08
0)
1_
b11111111111111111111111111111111 Y
b1111 Z
b1111 D
1+
#4040000
1"
0!
01
15
b0 d
b10000 I
b10001 W
b10011 V
b10011 F
b0 c
b10000 O
b0 :
b0 (
b11000 E
b11111111111111111111111111111111 \
b11101 ]
b11101 G
b110 .
#4060000
1!
11
b11111 H
b11000 S
b1111 `
b11111 M
b10000 B
18
1)
0_
